[
  {
    "Name": "Mazharul Bhuian",
    "TotalRuns": 476,
    "TotalBallFaced": 359,
    "TotalInnings": 12,
    "NotOuts": 1,
    "Average": 43.27,
    "StrikeRate": 132.59,
    "DotballPercentage": 41.78,
    "SinglesPercentage": 29.81,
    "DoublesPercentage": 10.31,
    "TripplesPercentage": 0.56,
    "BoundaryPercentage": 7.52,
    "OverBoundaryPercentage": 8.91,
    "Sixes": 32,
    "Fours": 27,
    "Ducks": 0,
    "DoubleFigureInningsPercentage": 83.33,
    "FifteenBallInningsPercentage": 66.67
  },
  {
    "Name": "Azmi Himel",
    "TotalRuns": 308,
    "TotalBallFaced": 276,
    "TotalInnings": 12,
    "NotOuts": 2,
    "Average": 30.8,
    "StrikeRate": 111.59,
    "DotballPercentage": 38.41,
    "SinglesPercentage": 35.14,
    "DoublesPercentage": 11.96,
    "TripplesPercentage": 0.72,
    "BoundaryPercentage": 5.07,
    "OverBoundaryPercentage": 4.35,
    "Sixes": 12,
    "Fours": 14,
    "Ducks": 0,
    "DoubleFigureInningsPercentage": 83.33,
    "FifteenBallInningsPercentage": 63.64
  },
  {
    "Name": "Syed Hasibul Alam Mubin",
    "TotalRuns": 285,
    "TotalBallFaced": 215,
    "TotalInnings": 20,
    "NotOuts": 4,
    "Average": 17.81,
    "StrikeRate": 132.56,
    "DotballPercentage": 34.42,
    "SinglesPercentage": 33.02,
    "DoublesPercentage": 14.88,
    "TripplesPercentage": 4.65,
    "BoundaryPercentage": 6.51,
    "OverBoundaryPercentage": 5.12,
    "Sixes": 11,
    "Fours": 14,
    "Ducks": 2,
    "DoubleFigureInningsPercentage": 65.0,
    "FifteenBallInningsPercentage": 35.29
  },
  {
    "Name": "Imran Uddin Shovon",
    "TotalRuns": 177,
    "TotalBallFaced": 206,
    "TotalInnings": 12,
    "NotOuts": 0,
    "Average": 14.75,
    "StrikeRate": 85.92,
    "DotballPercentage": 50.97,
    "SinglesPercentage": 25.73,
    "DoublesPercentage": 13.59,
    "TripplesPercentage": 0.0,
    "BoundaryPercentage": 7.28,
    "OverBoundaryPercentage": 0.0,
    "Sixes": 0,
    "Fours": 15,
    "Ducks": 0,
    "DoubleFigureInningsPercentage": 58.33,
    "FifteenBallInningsPercentage": 50.0
  },
  {
    "Name": "Ajmal Khan",
    "TotalRuns": 55,
    "TotalBallFaced": 68,
    "TotalInnings": 6,
    "NotOuts": 0,
    "Average": 9.17,
    "StrikeRate": 80.88,
    "DotballPercentage": 45.59,
    "SinglesPercentage": 42.65,
    "DoublesPercentage": 4.41,
    "TripplesPercentage": 0.0,
    "BoundaryPercentage": 7.35,
    "OverBoundaryPercentage": 0.0,
    "Sixes": 0,
    "Fours": 5,
    "Ducks": 0,
    "DoubleFigureInningsPercentage": 50.0,
    "FifteenBallInningsPercentage": 16.67
  },
  {
    "Name": "Khubaib Abdullah",
    "TotalRuns": 44,
    "TotalBallFaced": 55,
    "TotalInnings": 4,
    "NotOuts": 1,
    "Average": 14.67,
    "StrikeRate": 80.0,
    "DotballPercentage": 47.27,
    "SinglesPercentage": 34.55,
    "DoublesPercentage": 9.09,
    "TripplesPercentage": 1.82,
    "BoundaryPercentage": 5.45,
    "OverBoundaryPercentage": 0.0,
    "Sixes": 0,
    "Fours": 3,
    "Ducks": 0,
    "DoubleFigureInningsPercentage": 50.0,
    "FifteenBallInningsPercentage": 66.67
  },
  {
    "Name": "Shahen Ahmed",
    "TotalRuns": 36,
    "TotalBallFaced": 32,
    "TotalInnings": 6,
    "NotOuts": 5,
    "Average": 36.0,
    "StrikeRate": 112.5,
    "DotballPercentage": 31.25,
    "SinglesPercentage": 46.88,
    "DoublesPercentage": 12.5,
    "TripplesPercentage": 3.12,
    "BoundaryPercentage": 3.12,
    "OverBoundaryPercentage": 3.12,
    "Sixes": 1,
    "Fours": 1,
    "Ducks": 0,
    "DoubleFigureInningsPercentage": 66.67,
    "FifteenBallInningsPercentage": 50.0
  },
  {
    "Name": "Rony Hossain",
    "TotalRuns": 30,
    "TotalBallFaced": 33,
    "TotalInnings": 2,
    "NotOuts": 0,
    "Average": 15.0,
    "StrikeRate": 90.91,
    "DotballPercentage": 36.36,
    "SinglesPercentage": 36.36,
    "DoublesPercentage": 15.15,
    "TripplesPercentage": 0.0,
    "BoundaryPercentage": 6.06,
    "OverBoundaryPercentage": 0.0,
    "Sixes": 0,
    "Fours": 2,
    "Ducks": 0,
    "DoubleFigureInningsPercentage": 50.0,
    "FifteenBallInningsPercentage": 50.0
  },
  {
    "Name": "Mohammad Munna",
    "TotalRuns": 18,
    "TotalBallFaced": 22,
    "TotalInnings": 1,
    "NotOuts": 0,
    "Average": 18.0,
    "StrikeRate": 81.82,
    "DotballPercentage": 27.27,
    "SinglesPercentage": 63.64,
    "DoublesPercentage": 9.09,
    "TripplesPercentage": 0.0,
    "BoundaryPercentage": 0.0,
    "OverBoundaryPercentage": 0.0,
    "Sixes": 0,
    "Fours": 0,
    "Ducks": 0,
    "DoubleFigureInningsPercentage": 100.0,
    "FifteenBallInningsPercentage": 100.0
  },
  {
    "Name": "Amimul Ehsun",
    "TotalRuns": 17,
    "TotalBallFaced": 33,
    "TotalInnings": 3,
    "NotOuts": 0,
    "Average": 5.67,
    "StrikeRate": 51.52,
    "DotballPercentage": 51.52,
    "SinglesPercentage": 33.33,
    "DoublesPercentage": 9.09,
    "TripplesPercentage": 0.0,
    "BoundaryPercentage": 0.0,
    "OverBoundaryPercentage": 0.0,
    "Sixes": 0,
    "Fours": 0,
    "Ducks": 0,
    "DoubleFigureInningsPercentage": 33.33,
    "FifteenBallInningsPercentage": 33.33
  },
  {
    "Name": "Ashik Barman",
    "TotalRuns": 17,
    "TotalBallFaced": 21,
    "TotalInnings": 2,
    "NotOuts": 1,
    "Average": 17.0,
    "StrikeRate": 80.95,
    "DotballPercentage": 42.86,
    "SinglesPercentage": 38.1,
    "DoublesPercentage": 14.29,
    "TripplesPercentage": 0.0,
    "BoundaryPercentage": 4.76,
    "OverBoundaryPercentage": 0.0,
    "Sixes": 0,
    "Fours": 1,
    "Ducks": 0,
    "DoubleFigureInningsPercentage": 50.0,
    "FifteenBallInningsPercentage": 0.0
  },
  {
    "Name": "Rafi Rahman",
    "TotalRuns": 12,
    "TotalBallFaced": 11,
    "TotalInnings": 2,
    "NotOuts": 1,
    "Average": 12.0,
    "StrikeRate": 109.09,
    "DotballPercentage": 36.36,
    "SinglesPercentage": 36.36,
    "DoublesPercentage": 18.18,
    "TripplesPercentage": 0.0,
    "BoundaryPercentage": 9.09,
    "OverBoundaryPercentage": 0.0,
    "Sixes": 0,
    "Fours": 1,
    "Ducks": 0,
    "DoubleFigureInningsPercentage": 0.0,
    "FifteenBallInningsPercentage": 0.0
  },
  {
    "Name": "Md Shajadul Hoque",
    "TotalRuns": 8,
    "TotalBallFaced": 15,
    "TotalInnings": 4,
    "NotOuts": 2,
    "Average": 4.0,
    "StrikeRate": 53.33,
    "DotballPercentage": 66.67,
    "SinglesPercentage": 13.33,
    "DoublesPercentage": 20.0,
    "TripplesPercentage": 0.0,
    "BoundaryPercentage": 0.0,
    "OverBoundaryPercentage": 0.0,
    "Sixes": 0,
    "Fours": 0,
    "Ducks": 0,
    "DoubleFigureInningsPercentage": 0.0,
    "FifteenBallInningsPercentage": 0.0
  },
  {
    "Name": "Md Sazib Hossain",
    "TotalRuns": 6,
    "TotalBallFaced": 17,
    "TotalInnings": 2,
    "NotOuts": 1,
    "Average": 6.0,
    "StrikeRate": 35.29,
    "DotballPercentage": 64.71,
    "SinglesPercentage": 35.29,
    "DoublesPercentage": 0.0,
    "TripplesPercentage": 0.0,
    "BoundaryPercentage": 0.0,
    "OverBoundaryPercentage": 0.0,
    "Sixes": 0,
    "Fours": 0,
    "Ducks": 0,
    "DoubleFigureInningsPercentage": 0.0,
    "FifteenBallInningsPercentage": 0.0
  },
  {
    "Name": "Rafeed Siddiquey",
    "TotalRuns": 2,
    "TotalBallFaced": 15,
    "TotalInnings": 1,
    "NotOuts": 0,
    "Average": 2.0,
    "StrikeRate": 13.33,
    "DotballPercentage": 86.67,
    "SinglesPercentage": 13.33,
    "DoublesPercentage": 0.0,
    "TripplesPercentage": 0.0,
    "BoundaryPercentage": 0.0,
    "OverBoundaryPercentage": 0.0,
    "Sixes": 0,
    "Fours": 0,
    "Ducks": 0,
    "DoubleFigureInningsPercentage": 0.0,
    "FifteenBallInningsPercentage": 100.0
  }
]