[
  {
    "Name": "Md Shariful Islam",
    "TotalInnings": 10,
    "TotalWickets": 10,
    "TotalOvers": 24.4,
    "MaidenOvers": 0,
    "Runs": 140,
    "Economy": 5.68,
    "Average": 14.0,
    "StrikeRate": 14.8,
    "DotballPercentage": 43.24,
    "WidesPercentage": 4.73,
    "NoBallPercentage": 0.0,
    "BoundaryPercentage": 7.43
  },
  {
    "Name": "Khan Rahamatullah",
    "TotalInnings": 12,
    "TotalWickets": 7,
    "TotalOvers": 31.4,
    "MaidenOvers": 0,
    "Runs": 218,
    "Economy": 6.88,
    "Average": 31.14,
    "StrikeRate": 27.14,
    "DotballPercentage": 41.58,
    "WidesPercentage": 11.05,
    "NoBallPercentage": 0.0,
    "BoundaryPercentage": 9.47
  },
  {
    "Name": "Farhad Mahbub",
    "TotalInnings": 11,
    "TotalWickets": 7,
    "TotalOvers": 40.0,
    "MaidenOvers": 0,
    "Runs": 268,
    "Economy": 6.7,
    "Average": 38.29,
    "StrikeRate": 34.29,
    "DotballPercentage": 50.42,
    "WidesPercentage": 10.0,
    "NoBallPercentage": 0.0,
    "BoundaryPercentage": 12.92
  },
  {
    "Name": "Rakesh Mondal",
    "TotalInnings": 10,
    "TotalWickets": 5,
    "TotalOvers": 28.5,
    "MaidenOvers": 0,
    "Runs": 182,
    "Economy": 6.31,
    "Average": 36.4,
    "StrikeRate": 34.6,
    "DotballPercentage": 44.51,
    "WidesPercentage": 11.56,
    "NoBallPercentage": 1.73,
    "BoundaryPercentage": 7.51
  },
  {
    "Name": "Skd Rahul",
    "TotalInnings": 9,
    "TotalWickets": 5,
    "TotalOvers": 23.2,
    "MaidenOvers": 1,
    "Runs": 177,
    "Economy": 7.59,
    "Average": 35.4,
    "StrikeRate": 28.0,
    "DotballPercentage": 40.0,
    "WidesPercentage": 5.0,
    "NoBallPercentage": 0.71,
    "BoundaryPercentage": 12.14
  },
  {
    "Name": "Suzon Parvez",
    "TotalInnings": 7,
    "TotalWickets": 5,
    "TotalOvers": 26.1,
    "MaidenOvers": 1,
    "Runs": 139,
    "Economy": 5.31,
    "Average": 27.8,
    "StrikeRate": 31.4,
    "DotballPercentage": 59.24,
    "WidesPercentage": 11.46,
    "NoBallPercentage": 0.64,
    "BoundaryPercentage": 9.55
  },
  {
    "Name": "Muhitur Shuvo",
    "TotalInnings": 8,
    "TotalWickets": 5,
    "TotalOvers": 16.0,
    "MaidenOvers": 0,
    "Runs": 114,
    "Economy": 7.12,
    "Average": 22.8,
    "StrikeRate": 19.2,
    "DotballPercentage": 43.75,
    "WidesPercentage": 13.54,
    "NoBallPercentage": 1.04,
    "BoundaryPercentage": 9.38
  },
  {
    "Name": "Himel Barman",
    "TotalInnings": 7,
    "TotalWickets": 4,
    "TotalOvers": 19.0,
    "MaidenOvers": 1,
    "Runs": 147,
    "Economy": 7.74,
    "Average": 36.75,
    "StrikeRate": 28.5,
    "DotballPercentage": 54.39,
    "WidesPercentage": 20.18,
    "NoBallPercentage": 2.63,
    "BoundaryPercentage": 16.67
  },
  {
    "Name": "Abu Jahed Chowdhury",
    "TotalInnings": 2,
    "TotalWickets": 2,
    "TotalOvers": 5.0,
    "MaidenOvers": 0,
    "Runs": 30,
    "Economy": 6.0,
    "Average": 15.0,
    "StrikeRate": 15.0,
    "DotballPercentage": 33.33,
    "WidesPercentage": 6.67,
    "NoBallPercentage": 0.0,
    "BoundaryPercentage": 6.67
  },
  {
    "Name": "Adrian Sharafi",
    "TotalInnings": 3,
    "TotalWickets": 2,
    "TotalOvers": 6.0,
    "MaidenOvers": 0,
    "Runs": 37,
    "Economy": 6.17,
    "Average": 18.5,
    "StrikeRate": 18.0,
    "DotballPercentage": 33.33,
    "WidesPercentage": 5.56,
    "NoBallPercentage": 0.0,
    "BoundaryPercentage": 5.56
  },
  {
    "Name": "Shoybul Shakib",
    "TotalInnings": 4,
    "TotalWickets": 2,
    "TotalOvers": 8.1,
    "MaidenOvers": 0,
    "Runs": 30,
    "Economy": 3.67,
    "Average": 15.0,
    "StrikeRate": 24.5,
    "DotballPercentage": 61.22,
    "WidesPercentage": 12.24,
    "NoBallPercentage": 0.0,
    "BoundaryPercentage": 2.04
  },
  {
    "Name": "Khonodoker Ahmed Shaon",
    "TotalInnings": 2,
    "TotalWickets": 1,
    "TotalOvers": 4.0,
    "MaidenOvers": 0,
    "Runs": 21,
    "Economy": 5.25,
    "Average": 21.0,
    "StrikeRate": 24.0,
    "DotballPercentage": 33.33,
    "WidesPercentage": 4.17,
    "NoBallPercentage": 0.0,
    "BoundaryPercentage": 0.0
  },
  {
    "Name": "Toslim Arif",
    "TotalInnings": 2,
    "TotalWickets": 0,
    "TotalOvers": 3.0,
    "MaidenOvers": 0,
    "Runs": 25,
    "Economy": 8.33,
    "Average": "Infinity",
    "StrikeRate": "Infinity",
    "DotballPercentage": 50.0,
    "WidesPercentage": 44.44,
    "NoBallPercentage": 0.0,
    "BoundaryPercentage": 11.11
  },
  {
    "Name": "Amlan Karmakar",
    "TotalInnings": 3,
    "TotalWickets": 0,
    "TotalOvers": 6.0,
    "MaidenOvers": 0,
    "Runs": 51,
    "Economy": 8.5,
    "Average": "Infinity",
    "StrikeRate": "Infinity",
    "DotballPercentage": 30.56,
    "WidesPercentage": 27.78,
    "NoBallPercentage": 5.56,
    "BoundaryPercentage": 5.56
  },
  {
    "Name": "Nazmul Mithun",
    "TotalInnings": 1,
    "TotalWickets": 0,
    "TotalOvers": 0.5,
    "MaidenOvers": 0,
    "Runs": 9,
    "Economy": 10.8,
    "Average": "Infinity",
    "StrikeRate": "Infinity",
    "DotballPercentage": 40.0,
    "WidesPercentage": 60.0,
    "NoBallPercentage": 40.0,
    "BoundaryPercentage": 0.0
  },
  {
    "Name": "Md Habibur Ra",
    "TotalInnings": 1,
    "TotalWickets": 0,
    "TotalOvers": 2.0,
    "MaidenOvers": 0,
    "Runs": 15,
    "Economy": 7.5,
    "Average": "Infinity",
    "StrikeRate": "Infinity",
    "DotballPercentage": 75.0,
    "WidesPercentage": 91.67,
    "NoBallPercentage": 0.0,
    "BoundaryPercentage": 0.0
  },
  {
    "Name": "Rokonuzzaman Tuhin",
    "TotalInnings": 2,
    "TotalWickets": 0,
    "TotalOvers": 2.0,
    "MaidenOvers": 0,
    "Runs": 32,
    "Economy": 16.0,
    "Average": "Infinity",
    "StrikeRate": "Infinity",
    "DotballPercentage": 8.33,
    "WidesPercentage": 41.67,
    "NoBallPercentage": 8.33,
    "BoundaryPercentage": 41.67
  },
  {
    "Name": "Jubayer Ibna Kalam",
    "TotalInnings": 1,
    "TotalWickets": 0,
    "TotalOvers": 1.0,
    "MaidenOvers": 0,
    "Runs": 12,
    "Economy": 12.0,
    "Average": "Infinity",
    "StrikeRate": "Infinity",
    "DotballPercentage": 66.67,
    "WidesPercentage": 66.67,
    "NoBallPercentage": 0.0,
    "BoundaryPercentage": 33.33
  },
  {
    "Name": "Salman Anwar",
    "TotalInnings": 1,
    "TotalWickets": 0,
    "TotalOvers": 1.0,
    "MaidenOvers": 0,
    "Runs": 16,
    "Economy": 16.0,
    "Average": "Infinity",
    "StrikeRate": "Infinity",
    "DotballPercentage": 0.0,
    "WidesPercentage": 33.33,
    "NoBallPercentage": 0.0,
    "BoundaryPercentage": 33.33
  },
  {
    "Name": "Saikat Barua",
    "TotalInnings": 1,
    "TotalWickets": 0,
    "TotalOvers": 1.0,
    "MaidenOvers": 0,
    "Runs": 7,
    "Economy": 7.0,
    "Average": "Infinity",
    "StrikeRate": "Infinity",
    "DotballPercentage": 33.33,
    "WidesPercentage": 0.0,
    "NoBallPercentage": 0.0,
    "BoundaryPercentage": 16.67
  },
  {
    "Name": "Shaymal Paul Jackey",
    "TotalInnings": 2,
    "TotalWickets": 0,
    "TotalOvers": 3.0,
    "MaidenOvers": 0,
    "Runs": 40,
    "Economy": 13.33,
    "Average": "Infinity",
    "StrikeRate": "Infinity",
    "DotballPercentage": 22.22,
    "WidesPercentage": 55.56,
    "NoBallPercentage": 5.56,
    "BoundaryPercentage": 22.22
  }
]
