[
  {
    "Name": "Farhad Mahbub",
    "TotalInnings": 16,
    "TotalWickets": 22,
    "TotalOvers": 59.1,
    "MaidenOvers": 2,
    "Runs": 304,
    "Economy": 5.14,
    "Average": 13.82,
    "StrikeRate": 16.14,
    "DotballPercentage": 55.77,
    "WidesPercentage": 3.94,
    "NoBallPercentage": 0.56,
    "BoundaryPercentage": 7.61
  },
  {
    "Name": "Suzon Parvez",
    "TotalInnings": 14,
    "TotalWickets": 18,
    "TotalOvers": 57.0,
    "MaidenOvers": 5,
    "Runs": 274,
    "Economy": 4.81,
    "Average": 15.22,
    "StrikeRate": 19.0,
    "DotballPercentage": 64.91,
    "WidesPercentage": 11.4,
    "NoBallPercentage": 1.75,
    "BoundaryPercentage": 6.43
  },
  {
    "Name": "Skd Rahul",
    "TotalInnings": 15,
    "TotalWickets": 14,
    "TotalOvers": 48.3,
    "MaidenOvers": 0,
    "Runs": 290,
    "Economy": 5.98,
    "Average": 20.71,
    "StrikeRate": 20.79,
    "DotballPercentage": 50.52,
    "WidesPercentage": 8.25,
    "NoBallPercentage": 1.03,
    "BoundaryPercentage": 7.9
  },
  {
    "Name": "Himel Barman",
    "TotalInnings": 13,
    "TotalWickets": 13,
    "TotalOvers": 43.0,
    "MaidenOvers": 2,
    "Runs": 236,
    "Economy": 5.49,
    "Average": 18.15,
    "StrikeRate": 19.85,
    "DotballPercentage": 51.55,
    "WidesPercentage": 12.02,
    "NoBallPercentage": 1.16,
    "BoundaryPercentage": 5.81
  },
  {
    "Name": "Khan Rahamatullah",
    "TotalInnings": 14,
    "TotalWickets": 11,
    "TotalOvers": 31.3,
    "MaidenOvers": 2,
    "Runs": 172,
    "Economy": 5.46,
    "Average": 15.64,
    "StrikeRate": 17.18,
    "DotballPercentage": 44.97,
    "WidesPercentage": 2.65,
    "NoBallPercentage": 0.0,
    "BoundaryPercentage": 5.82
  },
  {
    "Name": "Md Shariful Islam",
    "TotalInnings": 12,
    "TotalWickets": 9,
    "TotalOvers": 27.4,
    "MaidenOvers": 0,
    "Runs": 155,
    "Economy": 5.6,
    "Average": 17.22,
    "StrikeRate": 18.44,
    "DotballPercentage": 47.59,
    "WidesPercentage": 9.04,
    "NoBallPercentage": 0.6,
    "BoundaryPercentage": 5.42
  },
  {
    "Name": "Rakesh Mondal",
    "TotalInnings": 10,
    "TotalWickets": 6,
    "TotalOvers": 16.4,
    "MaidenOvers": 0,
    "Runs": 116,
    "Economy": 6.96,
    "Average": 19.33,
    "StrikeRate": 16.67,
    "DotballPercentage": 45.0,
    "WidesPercentage": 7.0,
    "NoBallPercentage": 3.0,
    "BoundaryPercentage": 8.0
  },
  {
    "Name": "Agnik Podder",
    "TotalInnings": 3,
    "TotalWickets": 5,
    "TotalOvers": 12.1,
    "MaidenOvers": 1,
    "Runs": 44,
    "Economy": 3.62,
    "Average": 8.8,
    "StrikeRate": 14.6,
    "DotballPercentage": 58.9,
    "WidesPercentage": 8.22,
    "NoBallPercentage": 0.0,
    "BoundaryPercentage": 1.37
  },
  {
    "Name": "Shaymal Paul Jackey",
    "TotalInnings": 7,
    "TotalWickets": 3,
    "TotalOvers": 14.1,
    "MaidenOvers": 0,
    "Runs": 97,
    "Economy": 6.85,
    "Average": 32.33,
    "StrikeRate": 28.33,
    "DotballPercentage": 49.41,
    "WidesPercentage": 22.35,
    "NoBallPercentage": 4.71,
    "BoundaryPercentage": 7.06
  },
  {
    "Name": "Muhitur Shuvo",
    "TotalInnings": 4,
    "TotalWickets": 3,
    "TotalOvers": 9.0,
    "MaidenOvers": 0,
    "Runs": 49,
    "Economy": 5.44,
    "Average": 16.33,
    "StrikeRate": 18.0,
    "DotballPercentage": 38.89,
    "WidesPercentage": 14.81,
    "NoBallPercentage": 0.0,
    "BoundaryPercentage": 1.85
  },
  {
    "Name": "Saikat Barua",
    "TotalInnings": 5,
    "TotalWickets": 2,
    "TotalOvers": 10.3,
    "MaidenOvers": 0,
    "Runs": 61,
    "Economy": 5.81,
    "Average": 30.5,
    "StrikeRate": 31.5,
    "DotballPercentage": 46.03,
    "WidesPercentage": 7.94,
    "NoBallPercentage": 1.59,
    "BoundaryPercentage": 4.76
  },
  {
    "Name": "Rokonuzzaman Tuhin",
    "TotalInnings": 3,
    "TotalWickets": 2,
    "TotalOvers": 5.0,
    "MaidenOvers": 0,
    "Runs": 29,
    "Economy": 5.8,
    "Average": 14.5,
    "StrikeRate": 15.0,
    "DotballPercentage": 60.0,
    "WidesPercentage": 10.0,
    "NoBallPercentage": 3.33,
    "BoundaryPercentage": 13.33
  },
  {
    "Name": "Shoybul Shakib",
    "TotalInnings": 4,
    "TotalWickets": 2,
    "TotalOvers": 8.0,
    "MaidenOvers": 0,
    "Runs": 57,
    "Economy": 7.12,
    "Average": 28.5,
    "StrikeRate": 24.0,
    "DotballPercentage": 37.5,
    "WidesPercentage": 8.33,
    "NoBallPercentage": 0.0,
    "BoundaryPercentage": 8.33
  },
  {
    "Name": "Abu Jahed Chowdhury",
    "TotalInnings": 4,
    "TotalWickets": 1,
    "TotalOvers": 5.0,
    "MaidenOvers": 0,
    "Runs": 34,
    "Economy": 6.8,
    "Average": 34.0,
    "StrikeRate": 30.0,
    "DotballPercentage": 33.33,
    "WidesPercentage": 3.33,
    "NoBallPercentage": 0.0,
    "BoundaryPercentage": 10.0
  },
  {
    "Name": "Jubayer Ibna Kalam",
    "TotalInnings": 1,
    "TotalWickets": 1,
    "TotalOvers": 2.0,
    "MaidenOvers": 0,
    "Runs": 11,
    "Economy": 5.5,
    "Average": 11.0,
    "StrikeRate": 12.0,
    "DotballPercentage": 58.33,
    "WidesPercentage": 8.33,
    "NoBallPercentage": 8.33,
    "BoundaryPercentage": 0.0
  },
  {
    "Name": "Khonodoker Ahmed Shaon",
    "TotalInnings": 4,
    "TotalWickets": 0,
    "TotalOvers": 12.0,
    "MaidenOvers": 0,
    "Runs": 64,
    "Economy": 5.33,
    "Average": "Infinity",
    "StrikeRate": "Infinity",
    "DotballPercentage": 43.06,
    "WidesPercentage": 0.0,
    "NoBallPercentage": 2.78,
    "BoundaryPercentage": 5.56
  }
]
