[
  {
    "Name": "Farhad Mahbub",
    "TotalRuns": 308,
    "TotalBallFaced": 356,
    "TotalInnings": 16,
    "NotOuts": 0,
    "Average": 19.25,
    "StrikeRate": 86.52,
    "DotballPercentage": 48.88,
    "SinglesPercentage": 33.99,
    "DoublesPercentage": 7.3,
    "TripplesPercentage": 0.84,
    "BoundaryPercentage": 6.18,
    "OverBoundaryPercentage": 1.4,
    "Sixes": 5,
    "Fours": 22,
    "Ducks": 0,
    "DoubleFigureInningsPercentage": 75.0,
    "FifteenBallInningsPercentage": 75.0
  },
  {
    "Name": "Suzon Parvez",
    "TotalRuns": 222,
    "TotalBallFaced": 200,
    "TotalInnings": 13,
    "NotOuts": 1,
    "Average": 18.5,
    "StrikeRate": 111.0,
    "DotballPercentage": 49.5,
    "SinglesPercentage": 27.5,
    "DoublesPercentage": 6.5,
    "TripplesPercentage": 1.5,
    "BoundaryPercentage": 9.5,
    "OverBoundaryPercentage": 5.0,
    "Sixes": 10,
    "Fours": 19,
    "Ducks": 2,
    "DoubleFigureInningsPercentage": 61.54,
    "FifteenBallInningsPercentage": 46.15
  },
  {
    "Name": "Skd Rahul",
    "TotalRuns": 194,
    "TotalBallFaced": 268,
    "TotalInnings": 16,
    "NotOuts": 1,
    "Average": 12.93,
    "StrikeRate": 72.39,
    "DotballPercentage": 53.36,
    "SinglesPercentage": 28.73,
    "DoublesPercentage": 10.82,
    "TripplesPercentage": 0.75,
    "BoundaryPercentage": 5.6,
    "OverBoundaryPercentage": 0.0,
    "Sixes": 0,
    "Fours": 15,
    "Ducks": 2,
    "DoubleFigureInningsPercentage": 50.0,
    "FifteenBallInningsPercentage": 56.25
  },
  {
    "Name": "Rakesh Mondal",
    "TotalRuns": 148,
    "TotalBallFaced": 152,
    "TotalInnings": 13,
    "NotOuts": 1,
    "Average": 12.33,
    "StrikeRate": 97.37,
    "DotballPercentage": 50.0,
    "SinglesPercentage": 26.32,
    "DoublesPercentage": 12.5,
    "TripplesPercentage": 0.0,
    "BoundaryPercentage": 7.24,
    "OverBoundaryPercentage": 2.63,
    "Sixes": 4,
    "Fours": 11,
    "Ducks": 1,
    "DoubleFigureInningsPercentage": 46.15,
    "FifteenBallInningsPercentage": 41.67
  },
  {
    "Name": "Rokonuzzaman Tuhin",
    "TotalRuns": 147,
    "TotalBallFaced": 213,
    "TotalInnings": 12,
    "NotOuts": 2,
    "Average": 14.7,
    "StrikeRate": 69.01,
    "DotballPercentage": 51.64,
    "SinglesPercentage": 37.09,
    "DoublesPercentage": 5.63,
    "TripplesPercentage": 0.47,
    "BoundaryPercentage": 2.35,
    "OverBoundaryPercentage": 1.41,
    "Sixes": 3,
    "Fours": 5,
    "Ducks": 0,
    "DoubleFigureInningsPercentage": 72.73,
    "FifteenBallInningsPercentage": 80.0
  },
  {
    "Name": "Himel Barman",
    "TotalRuns": 124,
    "TotalBallFaced": 133,
    "TotalInnings": 12,
    "NotOuts": 4,
    "Average": 15.5,
    "StrikeRate": 93.23,
    "DotballPercentage": 49.62,
    "SinglesPercentage": 26.32,
    "DoublesPercentage": 12.78,
    "TripplesPercentage": 2.26,
    "BoundaryPercentage": 6.02,
    "OverBoundaryPercentage": 1.5,
    "Sixes": 2,
    "Fours": 8,
    "Ducks": 0,
    "DoubleFigureInningsPercentage": 45.45,
    "FifteenBallInningsPercentage": 33.33
  },
  {
    "Name": "Abu Jahed Chowdhury",
    "TotalRuns": 110,
    "TotalBallFaced": 139,
    "TotalInnings": 9,
    "NotOuts": 6,
    "Average": 36.67,
    "StrikeRate": 79.14,
    "DotballPercentage": 52.52,
    "SinglesPercentage": 20.86,
    "DoublesPercentage": 16.55,
    "TripplesPercentage": 2.16,
    "BoundaryPercentage": 5.04,
    "OverBoundaryPercentage": 0.0,
    "Sixes": 0,
    "Fours": 7,
    "Ducks": 1,
    "DoubleFigureInningsPercentage": 66.67,
    "FifteenBallInningsPercentage": 66.67
  },
  {
    "Name": "Shaymal Paul Jackey",
    "TotalRuns": 108,
    "TotalBallFaced": 123,
    "TotalInnings": 8,
    "NotOuts": 3,
    "Average": 21.6,
    "StrikeRate": 87.8,
    "DotballPercentage": 45.53,
    "SinglesPercentage": 31.71,
    "DoublesPercentage": 13.82,
    "TripplesPercentage": 0.81,
    "BoundaryPercentage": 3.25,
    "OverBoundaryPercentage": 2.44,
    "Sixes": 3,
    "Fours": 4,
    "Ducks": 1,
    "DoubleFigureInningsPercentage": 71.43,
    "FifteenBallInningsPercentage": 66.67
  },
  {
    "Name": "Khonodoker Ahmed Shaon",
    "TotalRuns": 91,
    "TotalBallFaced": 144,
    "TotalInnings": 9,
    "NotOuts": 1,
    "Average": 11.38,
    "StrikeRate": 63.19,
    "DotballPercentage": 51.39,
    "SinglesPercentage": 36.11,
    "DoublesPercentage": 6.94,
    "TripplesPercentage": 0.69,
    "BoundaryPercentage": 2.08,
    "OverBoundaryPercentage": 0.0,
    "Sixes": 0,
    "Fours": 3,
    "Ducks": 0,
    "DoubleFigureInningsPercentage": 22.22,
    "FifteenBallInningsPercentage": 62.5
  },
  {
    "Name": "Md Shariful Islam",
    "TotalRuns": 77,
    "TotalBallFaced": 83,
    "TotalInnings": 13,
    "NotOuts": 2,
    "Average": 7.0,
    "StrikeRate": 92.77,
    "DotballPercentage": 44.58,
    "SinglesPercentage": 31.33,
    "DoublesPercentage": 16.87,
    "TripplesPercentage": 1.2,
    "BoundaryPercentage": 2.41,
    "OverBoundaryPercentage": 2.41,
    "Sixes": 2,
    "Fours": 2,
    "Ducks": 4,
    "DoubleFigureInningsPercentage": 16.67,
    "FifteenBallInningsPercentage": 16.67
  },
  {
    "Name": "Shoybul Shakib",
    "TotalRuns": 69,
    "TotalBallFaced": 68,
    "TotalInnings": 6,
    "NotOuts": 1,
    "Average": 13.8,
    "StrikeRate": 101.47,
    "DotballPercentage": 44.12,
    "SinglesPercentage": 33.82,
    "DoublesPercentage": 13.24,
    "TripplesPercentage": 1.47,
    "BoundaryPercentage": 2.94,
    "OverBoundaryPercentage": 4.41,
    "Sixes": 3,
    "Fours": 2,
    "Ducks": 1,
    "DoubleFigureInningsPercentage": 60.0,
    "FifteenBallInningsPercentage": 40.0
  },
  {
    "Name": "Agnik Podder",
    "TotalRuns": 67,
    "TotalBallFaced": 106,
    "TotalInnings": 5,
    "NotOuts": 0,
    "Average": 13.4,
    "StrikeRate": 63.21,
    "DotballPercentage": 53.77,
    "SinglesPercentage": 33.96,
    "DoublesPercentage": 9.43,
    "TripplesPercentage": 0.0,
    "BoundaryPercentage": 2.83,
    "OverBoundaryPercentage": 0.0,
    "Sixes": 0,
    "Fours": 3,
    "Ducks": 1,
    "DoubleFigureInningsPercentage": 40.0,
    "FifteenBallInningsPercentage": 60.0
  },
  {
    "Name": "Chinmoy Saha",
    "TotalRuns": 57,
    "TotalBallFaced": 62,
    "TotalInnings": 5,
    "NotOuts": 1,
    "Average": 14.25,
    "StrikeRate": 91.94,
    "DotballPercentage": 41.94,
    "SinglesPercentage": 38.71,
    "DoublesPercentage": 8.06,
    "TripplesPercentage": 0.0,
    "BoundaryPercentage": 9.68,
    "OverBoundaryPercentage": 0.0,
    "Sixes": 0,
    "Fours": 6,
    "Ducks": 0,
    "DoubleFigureInningsPercentage": 50.0,
    "FifteenBallInningsPercentage": 25.0
  },
  {
    "Name": "Khan Rahamatullah",
    "TotalRuns": 30,
    "TotalBallFaced": 34,
    "TotalInnings": 6,
    "NotOuts": 3,
    "Average": 10.0,
    "StrikeRate": 88.24,
    "DotballPercentage": 38.24,
    "SinglesPercentage": 41.18,
    "DoublesPercentage": 17.65,
    "TripplesPercentage": 0.0,
    "BoundaryPercentage": 2.94,
    "OverBoundaryPercentage": 0.0,
    "Sixes": 0,
    "Fours": 1,
    "Ducks": 1,
    "DoubleFigureInningsPercentage": 25.0,
    "FifteenBallInningsPercentage": 0.0
  },
  {
    "Name": "Saikat Barua",
    "TotalRuns": 12,
    "TotalBallFaced": 23,
    "TotalInnings": 3,
    "NotOuts": 1,
    "Average": 6.0,
    "StrikeRate": 52.17,
    "DotballPercentage": 60.87,
    "SinglesPercentage": 26.09,
    "DoublesPercentage": 13.04,
    "TripplesPercentage": 0.0,
    "BoundaryPercentage": 0.0,
    "OverBoundaryPercentage": 0.0,
    "Sixes": 0,
    "Fours": 0,
    "Ducks": 0,
    "DoubleFigureInningsPercentage": 0.0,
    "FifteenBallInningsPercentage": 0.0
  },
  {
    "Name": "Muhitur Shuvo",
    "TotalRuns": 7,
    "TotalBallFaced": 14,
    "TotalInnings": 3,
    "NotOuts": 0,
    "Average": 2.33,
    "StrikeRate": 50.0,
    "DotballPercentage": 64.29,
    "SinglesPercentage": 14.29,
    "DoublesPercentage": 21.43,
    "TripplesPercentage": 0.0,
    "BoundaryPercentage": 0.0,
    "OverBoundaryPercentage": 0.0,
    "Sixes": 0,
    "Fours": 0,
    "Ducks": 1,
    "DoubleFigureInningsPercentage": 0.0,
    "FifteenBallInningsPercentage": 0.0
  },
  {
    "Name": "Nazmul Mithun",
    "TotalRuns": 5,
    "TotalBallFaced": 3,
    "TotalInnings": 1,
    "NotOuts": 1,
    "Average": 5.0,
    "StrikeRate": 166.67,
    "DotballPercentage": 33.33,
    "SinglesPercentage": 33.33,
    "DoublesPercentage": 0.0,
    "TripplesPercentage": 0.0,
    "BoundaryPercentage": 33.33,
    "OverBoundaryPercentage": 0.0,
    "Sixes": 0,
    "Fours": 1,
    "Ducks": 0,
    "DoubleFigureInningsPercentage": "NaN",
    "FifteenBallInningsPercentage": "NaN"
  },
  {
    "Name": "Jubayer Ibna Kalam",
    "TotalRuns": 0,
    "TotalBallFaced": 2,
    "TotalInnings": 2,
    "NotOuts": 0,
    "Average": 0.0,
    "StrikeRate": 0.0,
    "DotballPercentage": 100.0,
    "SinglesPercentage": 0.0,
    "DoublesPercentage": 0.0,
    "TripplesPercentage": 0.0,
    "BoundaryPercentage": 0.0,
    "OverBoundaryPercentage": 0.0,
    "Sixes": 0,
    "Fours": 0,
    "Ducks": 2,
    "DoubleFigureInningsPercentage": 0.0,
    "FifteenBallInningsPercentage": 0.0
  }
]
